{
  "images" : [
    {
      "filename" : "unnamed_25x25.png",
      "idiom" : "universal"
    }
  ],
  "info" : {
    "author" : "xcode",
    "version" : 1
  },
  "properties" : {
    "auto-scaling" : "auto"
  }
}
